…
    customers <- function(df_customers_raw) {
      df_customers_raw |>
        mutate(
          phone_chr = map_chr(str_extract_all(phone, "\\d"), str_flatten),
          name_split = str_split(name, "\\s+"),
          first_name = map_chr(name_split, ~ str_flatten(.x[.x != last(.x)])),
          last_name = map_chr(name_split, last),
          initials = str_to_lower(str_glue(
            "{str_sub(first_name, end = 1)}{str_sub(last_name, end = 1)}"))) |>
        select(where(negate(is_list))) |>
        distinct(customerid, .keep_all = TRUE)
    }

    ## # A tibble: 11,079 × 10
    ##    customerid name      address citys…¹ birthdate  phone phone…² first…³ last_…⁴
    ##    <chr>      <chr>     <chr>   <chr>   <date>     <chr> <chr>   <chr>   <chr>  
    ##  1 1001       Jack Qui… 201 E … Los An… 1960-05-14 805-… 805287… Jack    Quinn  
    ##  2 1002       David Po… 224C T… Staten… 1978-04-04 516-… 516768… David   Powell 
    ##  3 1003       Carrie G… 1608 W… Tampa,… 1969-01-21 727-… 727209… Carrie  Green  
    ##  4 1004       Steven M… 178½ E… Manhat… 1953-08-17 607-… 607941… Steven  Miller 
    ##  5 1005       Christin… 270 W … Bronx,… 1983-06-06 212-… 212759… Christ… Powers 
    ##  6 1006       Amanda R… 183-48… Saint … 1962-07-08 914-… 914421… Amanda  Ramirez
    ##  7 1007       Mark Col… 14-47 … Colleg… 1967-04-14 585-… 585554… Mark    Collins
    ##  8 1008       Jill Ste… 735A A… Manhat… 1959-06-11 516-… 516307… Jill    Stevens
    ##  9 1009       Samuel F… 56 Ric… Brookl… 1988-10-24 929-… 929869… Samuel  Fowler 
    ## 10 1010       Brenda J… 2821 B… Bronx,… 1960-09-07 914-… 914205… Brenda  Johnson
    ## # … with 11,069 more rows, 1 more variable: initials <chr>, and abbreviated
    ## #   variable names ¹​citystatezip, ²​phone_chr, ³​first_name, ⁴​last_name

## Products

    products <- function(df_products_raw) {
      df_products_raw |>
        mutate(
          category = str_remove(sku, "\\d+"),
          add_info = str_extract(desc, "\\(.+\\)"),
          desc = if_else(!is.na(add_info), str_remove(desc, add_info), desc),
          across(c(add_info, desc), ~ str_trim(str_remove_all(.x, "\\)|\\("))))
    }

    ## # A tibble: 1,124 × 5
    ##    sku     desc                                    wholesale_c…¹ categ…² add_i…³
    ##    <chr>   <chr>                                           <dbl> <chr>   <chr>  
    ##  1 DLI0002 Smoked Whitefish Sandwich                        9.33 DLI     <NA>   
    ##  2 PET0005 Vegan Cat Food, Turkey & Chicken                 4.35 PET     <NA>   
    ##  3 HOM0018 Power Radio                                     21.8  HOM     red    
    ##  4 KIT0034 Azure Ladle                                      2.81 KIT     <NA>   
    ##  5 PET0041 Gluten-free Cat Food, Pumpkin & Pumpkin          4.6  PET     <NA>   
    ##  6 PET0045 Gluten-free Cat Food, Salmon & Shrimp            4.32 PET     <NA>   
    ##  7 TOY0048 Electric Doll                                   10.2  TOY     <NA>   
    ##  8 CMP0061 Network Printer                                136.   CMP     <NA>   
    ##  9 DLI0066 Pickled Herring Sandwich                         9.94 DLI     <NA>   
    ## 10 TOY0085 Noah's Toy Soldier                              12.0  TOY     <NA>   
    ## # … with 1,114 more rows, and abbreviated variable names ¹​wholesale_cost,
    ## #   ²​category, ³​add_info

## Orders

    orders <- function(df_orders_raw, df_order_items) {
      df_orders_raw |>
        select(-items) |>
        nest_join(df_order_items, by = "orderid", name = "items")
    }

    ## # A tibble: 214,207 × 6
    ##    orderid customerid ordered             shipped             total items   
    ##    <chr>   <chr>      <dttm>              <dttm>              <dbl> <list>  
    ##  1 1001    4308       2017-01-31 00:32:19 2017-01-31 07:15:00  25.5 <tibble>
    ##  2 1002    11683      2017-01-31 00:58:31 2017-01-31 18:00:00  35.3 <tibble>
    ##  3 1003    5676       2017-01-31 01:34:40 2017-01-31 09:00:00  30.8 <tibble>
    ##  4 1004    3097       2017-01-31 02:31:24 2017-01-31 19:45:00  77.6 <tibble>
    ##  5 1005    10374      2017-01-31 02:46:09 2017-01-31 14:45:00 109.  <tibble>
    ##  6 1006    9241       2017-01-31 03:56:04 2017-01-31 19:00:00  15.1 <tibble>
    ##  7 1007    7189       2017-01-31 07:00:00 2017-01-31 20:15:00  11.0 <tibble>
    ##  8 1008    7228       2017-01-31 07:17:53 2017-01-31 07:17:53  33.1 <tibble>
    ##  9 1009    1125       2017-01-31 08:14:34 2017-01-31 13:15:00  17.2 <tibble>
    ## 10 1010    7340       2017-01-31 08:32:57 2017-01-31 19:30:00   4.6 <tibble>
    ## # … with 214,197 more rows
…
To find the rug, we will need to contact a private investigator. The
last name of the investigator can be spelled by using the letters
printed on the phone buttons. For example: 2 has “ABC”, and 3 “DEF”,
etc.

The key pad of the phone can be represented in R like this:

    phone_letter <- function() {
      tibble(letter = letters) |>
        mutate(
          nr = ((row_number() - 1) %/% 3) + 2,
          nr = as.character(if_else(nr == 10, 0, nr)))
    }

    ## # A tibble: 26 × 2
    ##    letter nr   
    ##    <chr>  <chr>
    ##  1 a      2    
    ##  2 b      2    
    ##  3 c      2    
    ##  4 d      3    
    ##  5 e      3    
    ##  6 f      3    
    ##  7 g      4    
    ##  8 h      4    
    ##  9 i      4    
    ## 10 j      5    
    ## # … with 16 more rows
…
